$my-Var

$murid = ["nama" => "Adrian", "alamat" => "Bandung", "gender" => "Laki-laki"]

SELECT * FROM Persons

$kahutex = new Factory("kahutex")

/*...*/

ORDER BY

SELECT * FROM Persons WHERE FirstName LIKE 'a%'

strlen()

$numbers[] = 100;

SELECT * FROM Persons WHERE FirstName='Peter' AND LastName='Jackson'

INSERT INTO Persons (LastName) VALUES ('Olsen')

strlen($namaSiswa) <= 5 && $namaSiswa[strlen($namaSiswa)-1] == "h"

1. Table Customers

    create table customers(

    id int auto_increment,

    name varchar(255),

    email varchar(255),

    password varchar(255),

    primary key(id)

    );

2. Table Orders

    create table orders(

    id int auto_increment,

    amount int(8),

    customer_id int,

    primary key(id),

    foreign key(customer_id) references customers(id)

    );


<?php 

function pagar_bintang($integer)

{

    //code disini

    for ($i = 1; $i < $integer + 1; $i++) {

        for ($j = 1; $j < $integer + 1; $j++) {

            if ($i % 2 == 1) {

                echo "#";

            } else {

                echo "*";

            }

        }

        echo "<br>";

    }

    echo "<br>";

}

 

 

echo pagar_bintang(5);

echo pagar_bintang(8);

echo pagar_bintang(10);


<?php
function xo($str)
{

    //Code disini
    if (substr_count($str, "o") == substr_count($str, "x")) {
        echo "$str ==> Benar";
    } else {
        echo "$str ==> Salah";
    }
    echo "<br>";
}

// Test Cases
echo xo('xoxoxo'); // "Benar"
echo xo('oxooxo'); // "Salah"
echo xo('oxo'); // "Salah"
echo xo('xxooox'); // "Benar"
echo xo('xoxooxxo'); // "Benar"


1. Tabel Customers

    insert into customers(id, name, email, password) values

    (1, "John Doe", "john@doe.com", "john123"),

    (2, "Jane Doe", "jane@doe.com", "jenita123");

2. Tabel Orders

    insert into orders(amount, customer_id) values

    (500, 1),

    (200, 2),

    (750, 2),

    (250, 1),

    (400, 2);

    

select customers.name as customer_name, sum(orders.amount) as total_amount from customers inner join orders on customers.id = orders.customer_id group by customer_id;